%YAML 1.1
%TAG !u! tag:unity3d.com,2011:
--- !u!1045 &1
EditorBuildSettings:
  m_ObjectHideFlags: 0
  serializedVersion: 2
  m_Scenes:
  - enabled: 0
    path: 
    guid: 00000000000000000000000000000000
  - enabled: 1
    path: Assets/Scenes/StartScene.unity
    guid: be2339bfaaf2fdc489c7fb9d17a1526f
  - enabled: 1
    path: Assets/Scenes/GameScene.unity
    guid: d29f14066b7d4be41832ad7fadeec91b
  m_configObjects: {}
